project_0/04_shift_register/TEMP/vcd/shift_register.vcd
$date
	Tue Jul  2 17:02:55 2024
$end
$version
	Icarus Verilog
$end
$timescale
	1ps
$end
$scope module shift_register_tb $end
$var wire 3 ! o_Qout [2:0] $end
$var wire 1 " o_Sout $end
$var reg 1 # i_Clk $end
$var reg 3 $ i_D [2:0] $end
$var reg 1 % i_Load $end
$var reg 1 & i_Sin $end
$var reg 256 ' taskState [255:0] $end
$var reg 256 ( vcd_file [255:0] $end
$var integer 32 ) i [31:0] $end
$scope module u_shift_register $end
$var wire 1 # i_Clk $end
$var wire 3 * i_D [2:0] $end
$var wire 1 % i_Load $end
$var wire 1 & i_Sin $end
$var wire 3 + o_Qout [2:0] $end
$var wire 1 " o_Sout $end
$scope begin genblk1[0] $end
$scope module u_mux_dff $end
$var wire 1 # i_clk $end
$var wire 1 , i_in0 $end
$var wire 1 - i_in1 $end
$var wire 1 % i_sel $end
$var wire 1 . w_mux_out $end
$var reg 1 / o_out $end
$upscope $end
$upscope $end
$scope begin genblk1[1] $end
$scope module u_mux_dff $end
$var wire 1 # i_clk $end
$var wire 1 0 i_in0 $end
$var wire 1 1 i_in1 $end
$var wire 1 % i_sel $end
$var wire 1 2 w_mux_out $end
$var reg 1 3 o_out $end
$upscope $end
$upscope $end
$scope module u_mux_dff_Final $end
$var wire 1 # i_clk $end
$var wire 1 4 i_in0 $end
$var wire 1 5 i_in1 $end
$var wire 1 % i_sel $end
$var wire 1 6 w_mux_out $end
$var reg 1 7 o_out $end
$upscope $end
$scope module u_mux_dff_Inital $end
$var wire 1 # i_clk $end
$var wire 1 & i_in0 $end
$var wire 1 8 i_in1 $end
$var wire 1 % i_sel $end
$var wire 1 9 w_mux_out $end
$var reg 1 : o_out $end
$upscope $end
$upscope $end
$scope task init $end
$upscope $end
$upscope $end
$enddefinitions $end
#0
$dumpvars
x:
09
08
x7
x6
05
x4
x3
x2
01
x0
x/
x.
0-
x,
bx +
b0 *
b0 )
b1011100010111101110110011000110110010000101111011100110110100001101001011001100111010001011111011100100110010101100111011010010111001101110100011001010111001000101110011101100110001101100100 (
b1001001011011100110100101110100 '
0&
0%
b0 $
0#
x"
bx !
$end
#5000
0.
0,
bx0 !
bx0 +
0:
1#
#10000
19
11
15
0#
b1 )
1&
b100 $
b100 *
b10100110110010101110010011010010110000101101100001011010111010001101111001011010101000001100001011100100110000101101100011011000110010101101100 '
#15000
1.
02
06
1,
00
04
1:
bx01 !
bx01 +
0/
1#
#20000
01
18
05
0#
b10 )
b1 $
b1 *
#25000
12
16
10
14
0"
1/
b11 !
b11 +
03
07
1#
#30000
11
15
0#
b11 )
b101 $
b101 *
#35000
1"
17
b111 !
b111 +
13
1#
#40000
09
0#
b100 )
0&
#45000
0.
0,
b110 !
b110 +
0:
1#
#50000
19
01
05
0#
b101 )
1&
b1 $
b1 *
#55000
1.
02
06
1,
00
04
1:
b101 !
b101 +
0/
1#
#60000
1-
11
08
15
0#
b110 )
b110 $
b110 *
#65000
12
16
10
14
0"
1/
03
b11 !
b11 +
07
1#
#70000
09
0-
18
0#
b111 )
0&
b101 $
b101 *
#75000
0.
0,
1"
17
0:
b110 !
b110 +
13
1#
#80000
01
05
0#
b1000 )
b1 $
b1 *
#85000
02
06
00
04
b100 !
b100 +
0/
1#
#90000
11
15
0#
b1001 )
b101 $
b101 *
#95000
0"
07
b0 !
b0 +
03
1#
#100000
19
0#
b1010 )
1&
#105000
1.
1,
b1 !
b1 +
1:
1#
#110000
1-
01
08
05
0#
b1011 )
b10 $
b10 *
#115000
12
16
10
14
b11 !
b11 +
1/
1#
#120000
09
0#
b1100 )
0&
#125000
0.
0,
1"
13
0:
b110 !
b110 +
17
1#
#130000
19
0-
0#
b1101 )
1&
b0 $
b0 *
#135000
1.
02
06
1,
00
04
1:
b101 !
b101 +
0/
1#
#140000
11
15
0#
b1110 )
b100 $
b100 *
#145000
12
16
10
14
0"
1/
03
b11 !
b11 +
07
1#
#150000
18
0#
b1111 )
b101 $
b101 *
#155000
1"
17
b111 !
b111 +
13
1#
#160000
09
1-
01
05
0#
b10000 )
0&
b11 $
b11 *
#165000
0.
0,
b110 !
b110 +
0:
1#
#170000
0-
08
0#
b10001 )
b0 $
b0 *
#175000
02
06
00
04
b100 !
b100 +
0/
1#
#180000
19
1-
0#
b10010 )
1&
b10 $
b10 *
#185000
1.
1,
0"
03
1:
b1 !
b1 +
07
1#
#190000
11
15
0#
b10011 )
b110 $
b110 *
#195000
12
16
10
14
b11 !
b11 +
1/
1#
#200000
0-
18
0#
b10100 )
b101 $
b101 *
#205000
1"
13
b111 !
b111 +
17
1#
#210000
02
06
1-
01
05
1.
0#
b0 )
b11 $
b11 *
1%
b1001001011011100111000001110101011101000010000001010000011000010111001001100001011011000110110001100101011011000010000001000100011000010111010001100001 '
#215000
0"
07
b11 !
b11 +
03
1#
#220000
08
12
16
09
0#
b1 )
0&
b10 $
b10 *
0%
b10100000110000101110010011000010110110001101100011001010110110000101101011101000110111100101101010100110110010101110010011010010110000101101100 '
#225000
0.
0,
1"
13
0:
b110 !
b110 +
17
1#
#230000
19
0-
11
18
15
0#
b10 )
1&
b101 $
b101 *
#235000
1.
02
06
1,
00
04
1:
b101 !
b101 +
0/
1#
#240000
09
1-
01
05
0#
b11 )
0&
b11 $
b11 *
#245000
12
16
0.
10
14
0,
0"
1/
03
0:
b10 !
b10 +
07
1#
#250000
08
0#
b100 )
b10 $
b10 *
#255000
02
06
1"
00
04
17
13
b100 !
b100 +
0/
1#
#260000
0#
b101 )
#265000
0"
03
b0 !
b0 +
07
1#
#270000
0-
18
0#
b110 )
b1 $
b1 *
#275000
1#
#280000
19
08
0#
b111 )
1&
b0 $
b0 *
#285000
1.
1,
b1 !
b1 +
1:
1#
#290000
09
1-
18
0#
b1000 )
0&
b11 $
b11 *
#295000
0.
12
16
0,
10
14
0:
b10 !
b10 +
1/
1#
#300000
11
08
15
0#
b1001 )
b110 $
b110 *
#305000
02
06
00
04
1"
0/
13
b100 !
b100 +
17
1#
#310000
0-
0#
b1010 )
b100 $
b100 *
#315000
0"
07
b0 !
b0 +
03
1#
#320000
19
1-
01
18
05
0#
b1011 )
1&
b11 $
b11 *
#325000
1.
1,
b1 !
b1 +
1:
1#
#330000
0-
11
15
0#
b1100 )
b101 $
b101 *
#335000
12
16
10
14
b11 !
b11 +
1/
1#
#340000
09
1-
01
05
0#
b1101 )
0&
b11 $
b11 *
#345000
0.
0,
1"
13
0:
b110 !
b110 +
17
1#
#350000
19
11
08
15
0#
b1110 )
1&
b110 $
b110 *
#355000
1.
02
06
1,
00
04
1:
b101 !
b101 +
0/
1#
#360000
0-
01
18
05
0#
b1111 )
b1 $
b1 *
#365000
12
16
10
14
0"
1/
03
b11 !
b11 +
07
1#
#370000
09
1-
08
0#
b10000 )
0&
b10 $
b10 *
#375000
0.
0,
1"
17
0:
b110 !
b110 +
13
1#
#380000
19
11
18
15
0#
b10001 )
1&
b111 $
b111 *
#385000
02
06
1.
00
04
1,
0/
b101 !
b101 +
1:
1#
#390000
0-
01
08
05
0#
b10010 )
b0 $
b0 *
#395000
12
16
0"
10
14
07
03
b11 !
b11 +
1/
1#
#400000
09
1-
11
18
15
0#
b10011 )
0&
b111 $
b111 *
#405000
0.
0,
1"
13
0:
b110 !
b110 +
17
1#
#410000
19
01
05
0#
b10100 )
1&
b11 $
b11 *
