project_0/04_shift_register/vcd/shift_register.vcd
$date
	Tue Jul  2 17:44:37 2024
$end
$version
	Icarus Verilog
$end
$timescale
	1ps
$end
$scope module shift_register_tb $end
$var wire 1 ! o_Sout $end
$var wire 8 " o_Qout [7:0] $end
$var reg 1 # i_Clk $end
$var reg 8 $ i_D [7:0] $end
$var reg 1 % i_Load $end
$var reg 1 & i_Sin $end
$var reg 256 ' taskState [255:0] $end
$var reg 256 ( vcd_file [255:0] $end
$var integer 32 ) i [31:0] $end
$scope module u_shift_register $end
$var wire 1 # i_Clk $end
$var wire 8 * i_D [7:0] $end
$var wire 1 % i_Load $end
$var wire 1 & i_Sin $end
$var wire 1 ! o_Sout $end
$var wire 8 + o_Qout [7:0] $end
$scope module u_mux_dff_0 $end
$var wire 1 # i_clk $end
$var wire 1 & i_in0 $end
$var wire 1 , i_in1 $end
$var wire 1 % i_sel $end
$var wire 1 - w_mux_out $end
$var reg 1 . o_out $end
$upscope $end
$scope module u_mux_dff_1 $end
$var wire 1 # i_clk $end
$var wire 1 / i_in0 $end
$var wire 1 0 i_in1 $end
$var wire 1 % i_sel $end
$var wire 1 1 w_mux_out $end
$var reg 1 2 o_out $end
$upscope $end
$scope module u_mux_dff_2 $end
$var wire 1 # i_clk $end
$var wire 1 3 i_in0 $end
$var wire 1 4 i_in1 $end
$var wire 1 % i_sel $end
$var wire 1 5 w_mux_out $end
$var reg 1 6 o_out $end
$upscope $end
$scope module u_mux_dff_3 $end
$var wire 1 # i_clk $end
$var wire 1 7 i_in0 $end
$var wire 1 8 i_in1 $end
$var wire 1 % i_sel $end
$var wire 1 9 w_mux_out $end
$var reg 1 : o_out $end
$upscope $end
$scope module u_mux_dff_4 $end
$var wire 1 # i_clk $end
$var wire 1 ; i_in0 $end
$var wire 1 < i_in1 $end
$var wire 1 % i_sel $end
$var wire 1 = w_mux_out $end
$var reg 1 > o_out $end
$upscope $end
$scope module u_mux_dff_5 $end
$var wire 1 # i_clk $end
$var wire 1 ? i_in0 $end
$var wire 1 @ i_in1 $end
$var wire 1 % i_sel $end
$var wire 1 A w_mux_out $end
$var reg 1 B o_out $end
$upscope $end
$scope module u_mux_dff_6 $end
$var wire 1 # i_clk $end
$var wire 1 C i_in0 $end
$var wire 1 D i_in1 $end
$var wire 1 % i_sel $end
$var wire 1 E w_mux_out $end
$var reg 1 F o_out $end
$upscope $end
$scope module u_mux_dff_7 $end
$var wire 1 # i_clk $end
$var wire 1 G i_in0 $end
$var wire 1 H i_in1 $end
$var wire 1 % i_sel $end
$var wire 1 I w_mux_out $end
$var reg 1 J o_out $end
$upscope $end
$upscope $end
$scope task init $end
$upscope $end
$upscope $end
$enddefinitions $end
#0
$dumpvars
xJ
xI
0H
xG
xF
xE
0D
xC
xB
xA
0@
x?
x>
x=
0<
x;
x:
x9
08
x7
x6
x5
04
x3
x2
x1
00
x/
x.
0-
0,
bx +
b0 *
b0 )
b1011100010111101110110011000110110010000101111011100110110100001101001011001100111010001011111011100100110010101100111011010010111001101110100011001010111001000101110011101100110001101100100 (
b1001001011011100110100101110100 '
0&
0%
b0 $
0#
bx "
x!
$end
#5000
01
0/
bx0 "
bx0 +
0.
1#
#10000
1-
14
1@
0#
b1 )
1&
b100100 $
b100100 *
b10100110110010101110010011010010110000101101100001011010111010001101111001011010101000001100001011100100110000101101100011011000110010101101100 '
#15000
05
11
03
1/
02
bx01 "
bx01 +
1.
1#
#20000
1,
04
18
0@
0#
b10 )
b1001 $
b1001 *
#25000
15
09
13
07
12
bx011 "
bx011 +
06
1#
#30000
14
0#
b11 )
b1101 $
b1101 *
#35000
0=
19
0;
17
0:
bx0111 "
bx0111 +
16
1#
#40000
0-
08
1@
1D
0#
b100 )
0&
b1100101 $
b1100101 *
#45000
01
1=
0A
0/
1;
0?
0.
1:
bx01110 "
bx01110 +
0>
1#
#50000
1-
04
0@
0D
0#
b101 )
1&
b1 $
b1 *
#55000
0E
1A
05
11
0C
1?
03
1/
0B
1>
02
bx011101 "
bx011101 +
1.
1#
#60000
0,
10
14
1<
1@
1D
0#
b110 )
b1110110 $
b1110110 *
#65000
15
09
1E
0I
13
07
1C
0G
12
06
1B
bx0111011 "
bx0111011 +
0F
1#
#70000
0-
1,
00
18
0<
1H
0#
b111 )
0&
b11101101 $
b11101101 *
#75000
1I
0=
19
01
0!
1G
0;
17
0/
0J
1F
0:
16
b1110110 "
b1110110 +
0.
1#
#80000
04
1<
0#
b1000 )
b11111001 $
b11111001 *
#85000
05
1=
0A
03
1;
0?
1!
02
1:
0>
b11101100 "
b11101100 +
1J
1#
#90000
14
08
0<
0@
0#
b1001 )
b11000101 $
b11000101 *
#95000
0E
1A
09
0C
1?
07
0B
1>
b11011000 "
b11011000 +
06
1#
#100000
1-
1@
0#
b1010 )
1&
b11100101 $
b11100101 *
#105000
11
0=
1E
0I
1/
0;
1C
0G
1.
0:
1B
b10110001 "
b10110001 +
0F
1#
#110000
0,
10
04
1<
0@
0D
0H
0#
b1011 )
b10010 $
b10010 *
#115000
1I
0A
15
0!
1G
0?
13
0J
1F
0>
b1100011 "
b1100011 +
12
1#
#120000
0-
1@
1D
1H
0#
b1100 )
0&
b11110010 $
b11110010 *
#125000
01
19
0E
0/
17
0C
1!
0.
16
0B
b11000110 "
b11000110 +
1J
1#
#130000
1-
00
18
0<
0#
b1101 )
1&
b11101000 $
b11101000 *
#135000
0I
1=
05
11
0G
1;
03
1/
0F
1:
02
b10001101 "
b10001101 +
1.
1#
#140000
14
1<
0@
0H
0#
b1110 )
b1011100 $
b1011100 *
#145000
15
09
1A
13
07
1?
0!
12
06
1>
b11011 "
b11011 +
0J
1#
#150000
1,
0<
1@
0D
0#
b1111 )
b101101 $
b101101 *
#155000
1E
0=
19
1C
0;
17
1B
0:
b110111 "
b110111 +
16
1#
#160000
0-
10
04
08
1D
0#
b10000 )
0&
b1100011 $
b1100011 *
#165000
01
1=
0A
1I
0/
1;
0?
1G
0.
1:
0>
b1101110 "
b1101110 +
1F
1#
#170000
0,
00
0@
0D
1H
0#
b10001 )
b10000000 $
b10000000 *
#175000
0E
1A
05
1!
0C
1?
03
1J
0B
1>
b11011100 "
b11011100 +
02
1#
#180000
1-
10
18
1@
0#
b10010 )
1&
b10101010 $
b10101010 *
#185000
11
09
1E
0I
1/
07
1C
0G
1.
06
1B
b10111001 "
b10111001 +
0F
1#
#190000
14
08
1<
0@
0#
b10011 )
b10010110 $
b10010110 *
#195000
1I
0=
15
0!
1G
0;
13
0J
1F
0:
b1110011 "
b1110011 +
12
1#
#200000
1,
00
18
0<
0H
0#
b10100 )
b1101 $
b1101 *
#205000
19
0A
17
0?
1!
16
0>
b11100111 "
b11100111 +
1J
1#
#210000
05
1A
10
04
1@
1D
11
1E
0I
0#
b0 )
b1101011 $
b1101011 *
1%
b1001001011011100111000001110101011101000010000001010000011000010111001001100001011011000110110001100101011011000010000001000100011000010111010001100001 '
#215000
0!
1;
07
0J
1:
b1101011 "
b1101011 +
06
1#
#220000
0,
08
0@
0D
0-
15
09
1=
0A
1I
0#
b1 )
0&
b10 $
b10 *
0%
b10100000110000101110010011000010110110001101100011001010110110000101101011101000110111100101101010100110110010101110010011010010110000101101100 '
#225000
01
19
0=
1A
0E
0/
17
0;
1?
0C
1!
0.
16
0:
1>
0B
b11010110 "
b11010110 +
1J
1#
#230000
1-
1,
00
14
18
1<
0#
b10 )
1&
b11101 $
b11101 *
#235000
0I
1E
0A
1=
05
11
0G
1C
0?
1;
03
1/
0F
1B
0>
1:
02
b10101101 "
b10101101 +
1.
1#
#240000
0-
10
04
08
0<
1@
0#
b11 )
0&
b100011 $
b100011 *
#245000
01
15
09
1A
0E
1I
0/
13
07
1?
0C
1G
0!
0.
12
06
1>
0B
1F
b1011010 "
b1011010 +
0J
1#
#250000
0,
18
0@
1D
1H
0#
b100 )
b11001010 $
b11001010 *
#255000
0I
1E
0=
19
05
1!
0G
1C
0;
17
03
1J
0F
1B
0:
16
b10110100 "
b10110100 +
02
1#
#260000
08
1<
1@
0#
b101 )
b11110010 $
b11110010 *
#265000
09
1=
0A
1I
07
1;
0?
1G
0!
06
1:
0>
1F
b1101000 "
b1101000 +
0J
1#
#270000
1,
00
0<
0@
0H
0#
b110 )
b1000001 $
b1000001 *
#275000
0E
1A
0=
1!
0C
1?
0;
1J
0B
1>
b11010000 "
b11010000 +
0:
1#
#280000
1-
0,
18
1<
1@
0#
b111 )
1&
b1111000 $
b1111000 *
#285000
11
0A
1E
0I
1/
0?
1C
0G
1.
0>
1B
b10100001 "
b10100001 +
0F
1#
#290000
0-
1,
10
0<
1H
0#
b1000 )
0&
b11101011 $
b11101011 *
#295000
1I
0E
15
01
0!
1G
0C
13
0/
0J
1F
0B
12
b1000010 "
b1000010 +
0.
1#
#300000
0,
14
08
0@
0#
b1001 )
b11000110 $
b11000110 *
#305000
05
19
0I
03
17
0G
1!
02
16
0F
b10000100 "
b10000100 +
1J
1#
#310000
00
18
1<
1@
0D
0#
b1010 )
b10111100 $
b10111100 *
#315000
1=
09
0!
1;
07
0J
1:
b1000 "
b1000 +
06
1#
#320000
1-
1,
10
04
0<
0@
0H
0#
b1011 )
1&
b1011 $
b1011 *
#325000
11
0=
1A
1/
0;
1?
1.
0:
b10001 "
b10001 +
1>
1#
#330000
00
14
08
1H
0#
b1100 )
b10000101 $
b10000101 *
#335000
1E
0A
15
1C
0?
13
1B
0>
b100011 "
b100011 +
12
1#
#340000
0-
10
04
18
1<
1@
0H
0#
b1101 )
0&
b111011 $
b111011 *
#345000
01
19
0E
1I
0/
17
0C
1G
0.
16
0B
b1000110 "
b1000110 +
1F
1#
#350000
1-
0,
14
1D
0#
b1110 )
1&
b1111110 $
b1111110 *
#355000
0I
1=
05
11
1!
0G
1;
03
1/
1J
0F
1:
02
b10001101 "
b10001101 +
1.
1#
#360000
1,
00
04
08
1H
0#
b1111 )
b11110001 $
b11110001 *
#365000
15
09
1A
13
07
1?
0!
12
06
1>
b11011 "
b11011 +
0J
1#
#370000
0-
0,
10
0<
0H
0#
b10000 )
0&
b1100010 $
b1100010 *
#375000
1E
0=
19
01
1C
0;
17
0/
1B
0:
16
b110110 "
b110110 +
0.
1#
#380000
1-
1,
14
18
1<
0@
0D
1H
0#
b10001 )
1&
b10011111 $
b10011111 *
#385000
11
05
1=
0A
1I
1/
03
1;
0?
1G
1.
02
1:
0>
b1101101 "
b1101101 +
1F
1#
#390000
0,
00
04
1@
1D
0#
b10010 )
b11111000 $
b11111000 *
#395000
0E
1A
09
15
1!
0C
1?
07
13
1J
0B
1>
06
b11011011 "
b11011011 +
12
1#
#400000
0-
1,
10
14
0@
0D
0#
b10011 )
0&
b10011111 $
b10011111 *
#405000
01
19
0=
1E
0I
0/
17
0;
1C
0G
0.
16
0:
1B
b10110110 "
b10110110 +
0F
1#
#410000
1-
04
1D
0H
0#
b10100 )
1&
b1011011 $
b1011011 *
