RV32I/testbench/vcd/sb.vcd
$version Generated by VerilatedVcd $end
$date Tue Jul 30 09:47:47 2024
 $end
$timescale   1ps $end

 $scope module TOP $end
  $var wire  1 [! i_clk $end
  $var wire  1 \! i_rstn $end
  $var wire 32 V! o_riscv_dmem_addr [31:0] $end
  $var wire  4 X! o_riscv_dmem_byte_sel [3:0] $end
  $var wire 32 Z! o_riscv_dmem_rd_data [31:0] $end
  $var wire 32 Y! o_riscv_dmem_wr_data [31:0] $end
  $var wire  1 W! o_riscv_dmem_wr_en $end
  $var wire 32 U! o_riscv_imem_instr [31:0] $end
  $var wire 32 T! o_riscv_imem_pc [31:0] $end
  $scope module riscv_top $end
   $var wire 32 n! REGISTER_INIT [31:0] $end
   $var wire  1 [! i_clk $end
   $var wire  1 \! i_rstn $end
   $var wire 32 V! o_riscv_dmem_addr [31:0] $end
   $var wire  4 X! o_riscv_dmem_byte_sel [3:0] $end
   $var wire 32 Z! o_riscv_dmem_rd_data [31:0] $end
   $var wire 32 Y! o_riscv_dmem_wr_data [31:0] $end
   $var wire  1 W! o_riscv_dmem_wr_en $end
   $var wire 32 U! o_riscv_imem_instr [31:0] $end
   $var wire 32 T! o_riscv_imem_pc [31:0] $end
   $scope module u_riscv_cpu $end
    $var wire 32 n! REGISTER_INIT [31:0] $end
    $var wire  4 +! alu_ctrl [3:0] $end
    $var wire  1 &! alu_zero $end
    $var wire 32 ,! dmem_addr [31:0] $end
    $var wire  4 a! dmem_byte_sel [3:0] $end
    $var wire 32 _! dmem_rd_data [31:0] $end
    $var wire 32 -! dmem_wr_data [31:0] $end
    $var wire  1 `! dmem_wr_en $end
    $var wire  1 [! i_clk $end
    $var wire 32 Z! i_cpu_dmem_rd_data [31:0] $end
    $var wire 32 U! i_cpu_imem_instr [31:0] $end
    $var wire  1 \! i_rstn $end
    $var wire 32 V! o_cpu_dmem_addr [31:0] $end
    $var wire  4 X! o_cpu_dmem_byte_sel [3:0] $end
    $var wire 32 Y! o_cpu_dmem_wr_data [31:0] $end
    $var wire  1 W! o_cpu_dmem_wr_en $end
    $var wire 32 T! o_cpu_imem_pc [31:0] $end
    $var wire  1 ^! reg_wr_en $end
    $var wire  1 ]! src_alu_a $end
    $var wire  1 *! src_alu_b $end
    $var wire  3 '! src_imm [2:0] $end
    $var wire  2 (! src_pc [1:0] $end
    $var wire  2 )! src_rd [1:0] $end
    $scope module u_riscv_ctrl $end
     $var wire 256 K! DEBUG_INSTR [255:0] $end
     $var wire  1 &! i_ctrl_alu_zero $end
     $var wire  3 i! i_ctrl_funct3 [2:0] $end
     $var wire  1 j! i_ctrl_funct7_5b $end
     $var wire  7 h! i_ctrl_opcode [6:0] $end
     $var wire  4 +! o_ctrl_alu_ctrl [3:0] $end
     $var wire  4 a! o_ctrl_mem_byte_sel [3:0] $end
     $var wire  1 `! o_ctrl_mem_wr_en $end
     $var wire  1 ^! o_ctrl_reg_wr_en $end
     $var wire  1 ]! o_ctrl_src_alu_a $end
     $var wire  1 *! o_ctrl_src_alu_b $end
     $var wire  3 '! o_ctrl_src_imm [2:0] $end
     $var wire  2 (! o_ctrl_src_pc [1:0] $end
     $var wire  2 )! o_ctrl_src_rd [1:0] $end
     $var wire  1 k! take_branch $end
    $upscope $end
    $scope module u_riscv_datapath $end
     $var wire 32 n! REGISTER_INIT [31:0] $end
     $var wire 32 1! alu_a [31:0] $end
     $var wire 32 2! alu_b [31:0] $end
     $var wire 32 ,! alu_result [31:0] $end
     $var wire  1 [! i_clk $end
     $var wire  4 +! i_dp_alu_ctrl [3:0] $end
     $var wire 32 U! i_dp_instr [31:0] $end
     $var wire 32 _! i_dp_mem_rd_data [31:0] $end
     $var wire  1 ^! i_dp_reg_wr_en $end
     $var wire  1 ]! i_dp_src_alu_a $end
     $var wire  1 *! i_dp_src_alu_b $end
     $var wire  3 '! i_dp_src_imm [2:0] $end
     $var wire  2 (! i_dp_src_pc [1:0] $end
     $var wire  2 )! i_dp_src_rd [1:0] $end
     $var wire  1 \! i_rstn $end
     $var wire 32 0! immediate [31:0] $end
     $var wire 64 :! mux_concat_alu_a [63:0] $end
     $var wire 64 <! mux_concat_alu_b [63:0] $end
     $var wire 96 3! mux_concat_pc [95:0] $end
     $var wire 128 6! mux_concat_rd [127:0] $end
     $var wire  1 &! o_dp_alu_zero $end
     $var wire 32 ,! o_dp_mem_addr [31:0] $end
     $var wire 32 -! o_dp_mem_wr_data [31:0] $end
     $var wire 32 T! o_dp_pc [31:0] $end
     $var wire 32 .! pc_next [31:0] $end
     $var wire 32 b! pc_plus_4 [31:0] $end
     $var wire 32 c! pc_plus_imm [31:0] $end
     $var wire 32 /! regfile_rd_data [31:0] $end
     $var wire 32 d! regfile_rs1_data [31:0] $end
     $var wire 32 -! regfile_rs2_data [31:0] $end
     $scope module u_riscv_adder_pc_plus_4 $end
      $var wire 32 T! i_adder_a [31:0] $end
      $var wire 32 q! i_adder_b [31:0] $end
      $var wire 32 b! o_adder_sum [31:0] $end
     $upscope $end
     $scope module u_riscv_adder_pc_plus_imm $end
      $var wire 32 T! i_adder_a [31:0] $end
      $var wire 32 0! i_adder_b [31:0] $end
      $var wire 32 c! o_adder_sum [31:0] $end
     $upscope $end
     $scope module u_riscv_alu $end
      $var wire 64 A! DEBUG_ALU_OP [63:0] $end
      $var wire 32 1! i_alu_a [31:0] $end
      $var wire 32 2! i_alu_b [31:0] $end
      $var wire  4 +! i_alu_ctrl [3:0] $end
      $var wire 32 ,! o_alu_result [31:0] $end
      $var wire  1 &! o_alu_zero $end
     $upscope $end
     $scope module u_riscv_immext $end
      $var wire 32 U! i_imm_instr [31:0] $end
      $var wire  3 '! i_imm_src [2:0] $end
      $var wire 32 0! o_imm_ext [31:0] $end
     $upscope $end
     $scope module u_riscv_mux_alu_a $end
      $var wire 32 r! N_MUX_IN [31:0] $end
      $var wire 64 :! i_mux_concat_data [63:0] $end
      $var wire  1 ]! i_mux_sel [0:0] $end
      $var wire 32 C! mux_input_arr(0) [31:0] $end
      $var wire 32 D! mux_input_arr(1) [31:0] $end
      $var wire 32 1! o_mux_data [31:0] $end
     $upscope $end
     $scope module u_riscv_mux_alu_b $end
      $var wire 32 r! N_MUX_IN [31:0] $end
      $var wire 64 <! i_mux_concat_data [63:0] $end
      $var wire  1 *! i_mux_sel [0:0] $end
      $var wire 32 E! mux_input_arr(0) [31:0] $end
      $var wire 32 F! mux_input_arr(1) [31:0] $end
      $var wire 32 2! o_mux_data [31:0] $end
     $upscope $end
     $scope module u_riscv_mux_pc $end
      $var wire 32 o! N_MUX_IN [31:0] $end
      $var wire 96 3! i_mux_concat_data [95:0] $end
      $var wire  2 (! i_mux_sel [1:0] $end
      $var wire 32 >! mux_input_arr(0) [31:0] $end
      $var wire 32 ?! mux_input_arr(1) [31:0] $end
      $var wire 32 @! mux_input_arr(2) [31:0] $end
      $var wire 32 .! o_mux_data [31:0] $end
     $upscope $end
     $scope module u_riscv_mux_regfile_rd_data $end
      $var wire 32 s! N_MUX_IN [31:0] $end
      $var wire 128 6! i_mux_concat_data [127:0] $end
      $var wire  2 )! i_mux_sel [1:0] $end
      $var wire 32 G! mux_input_arr(0) [31:0] $end
      $var wire 32 H! mux_input_arr(1) [31:0] $end
      $var wire 32 I! mux_input_arr(2) [31:0] $end
      $var wire 32 J! mux_input_arr(3) [31:0] $end
      $var wire 32 /! o_mux_data [31:0] $end
     $upscope $end
     $scope module u_riscv_regfile $end
      $var wire  1 [! i_clk $end
      $var wire  5 g! i_regfile_rd_addr [4:0] $end
      $var wire 32 /! i_regfile_rd_data [31:0] $end
      $var wire  1 ^! i_regfile_rd_wen $end
      $var wire  5 e! i_regfile_rs1_addr [4:0] $end
      $var wire  5 f! i_regfile_rs2_addr [4:0] $end
      $var wire 32 d! o_regfile_rs1_data [31:0] $end
      $var wire 32 -! o_regfile_rs2_data [31:0] $end
      $var wire 32 c registers(0) [31:0] $end
      $var wire 32 d registers(1) [31:0] $end
      $var wire 32 m registers(10) [31:0] $end
      $var wire 32 n registers(11) [31:0] $end
      $var wire 32 o registers(12) [31:0] $end
      $var wire 32 p registers(13) [31:0] $end
      $var wire 32 q registers(14) [31:0] $end
      $var wire 32 r registers(15) [31:0] $end
      $var wire 32 s registers(16) [31:0] $end
      $var wire 32 t registers(17) [31:0] $end
      $var wire 32 u registers(18) [31:0] $end
      $var wire 32 v registers(19) [31:0] $end
      $var wire 32 e registers(2) [31:0] $end
      $var wire 32 w registers(20) [31:0] $end
      $var wire 32 x registers(21) [31:0] $end
      $var wire 32 y registers(22) [31:0] $end
      $var wire 32 z registers(23) [31:0] $end
      $var wire 32 { registers(24) [31:0] $end
      $var wire 32 | registers(25) [31:0] $end
      $var wire 32 } registers(26) [31:0] $end
      $var wire 32 ~ registers(27) [31:0] $end
      $var wire 32 !! registers(28) [31:0] $end
      $var wire 32 "! registers(29) [31:0] $end
      $var wire 32 f registers(3) [31:0] $end
      $var wire 32 #! registers(30) [31:0] $end
      $var wire 32 $! registers(31) [31:0] $end
      $var wire 32 g registers(4) [31:0] $end
      $var wire 32 h registers(5) [31:0] $end
      $var wire 32 i registers(6) [31:0] $end
      $var wire 32 j registers(7) [31:0] $end
      $var wire 32 k registers(8) [31:0] $end
      $var wire 32 l registers(9) [31:0] $end
     $upscope $end
     $scope module u_riscv_register_pc $end
      $var wire 32 n! REGISTER_INIT [31:0] $end
      $var wire  1 [! i_clk $end
      $var wire 32 .! i_register_d [31:0] $end
      $var wire  1 p! i_register_en $end
      $var wire  1 \! i_rstn $end
      $var wire 32 T! o_register_q [31:0] $end
     $upscope $end
    $upscope $end
    $scope module u_riscv_dmem_interface $end
     $var wire 32 S! byte_aligned_dmem_rd_data [31:0] $end
     $var wire 32 ,! i_dmem_intf_addr [31:0] $end
     $var wire  4 a! i_dmem_intf_byte_sel [3:0] $end
     $var wire  3 i! i_dmem_intf_func3 [2:0] $end
     $var wire 32 Z! i_dmem_intf_rd_data [31:0] $end
     $var wire  1 `! i_dmem_intf_wen $end
     $var wire 32 -! i_dmem_intf_wr_data [31:0] $end
     $var wire 32 V! o_dmem_intf_addr [31:0] $end
     $var wire  4 X! o_dmem_intf_byte_sel [3:0] $end
     $var wire 32 _! o_dmem_intf_rd_data [31:0] $end
     $var wire  1 W! o_dmem_intf_wen $end
     $var wire 32 Y! o_dmem_intf_wr_data [31:0] $end
    $upscope $end
   $upscope $end
   $scope module u_riscv_dmem $end
    $var wire 1024 C FILE_DATA_MIF [1023:0] $end
    $var wire 32 %! i [31:0] $end
    $var wire  1 [! i_clk $end
    $var wire 14 m! i_dmem_addr [13:0] $end
    $var wire  4 X! i_dmem_byte_sel [3:0] $end
    $var wire 32 Y! i_dmem_data [31:0] $end
    $var wire  1 W! i_dmem_wr_en $end
    $var wire 32 Z! o_dmem_data [31:0] $end
   $upscope $end
   $scope module u_riscv_imem $end
    $var wire 1024 # FILE_TEXT_MIF [1023:0] $end
    $var wire 14 l! i_imem_addr [13:0] $end
    $var wire 32 U! o_imem_data [31:0] $end
   $upscope $end
  $upscope $end
 $upscope $end
$enddefinitions $end


#0
b0000000000000000000000000000000000000000000000000000000000000000000000000000000000000000000000000000000000000000000000000000000000000000000000000000000000000000000000000000000000000000000000000000000000000000000000000000000000000000000000000000000000000000000000000000000000000000000000000000000000000000000000000000000000000000000000000000000000000000000000000000000000000000000000000000000000000000000000000000000000000000000000000000000000000000000000000000000000000000000000000000000000000000000000000000000000000000001011110110100001101111011011010110010100101111011100110110111101101110011100110110010101101111011010110110101001101001011011100010111101111010011000010111001001100001011011010101111101110100011100100110000101101001011011100110100101101110011001110010111101010010010101100011001100110010010010010010111101110100011001010111001101110100011000100110010101101110011000110110100000101111011011010110100101100110001011110111001101100010001011100111010001100101011110000111010000101110011011010110100101100110 #
b0000000000000000000000000000000000000000000000000000000000000000000000000000000000000000000000000000000000000000000000000000000000000000000000000000000000000000000000000000000000000000000000000000000000000000000000000000000000000000000000000000000000000000000000000000000000000000000000000000000000000000000000000000000000000000000000000000000000000000000000000000000000000000000000000000000000000000000000000000000000000000000000000000000000000000000000000000000000000000000000000000000000000000000000000000000000000000001011110110100001101111011011010110010100101111011100110110111101101110011100110110010101101111011010110110101001101001011011100010111101111010011000010111001001100001011011010101111101110100011100100110000101101001011011100110100101101110011001110010111101010010010101100011001100110010010010010010111101110100011001010111001101110100011000100110010101101110011000110110100000101111011011010110100101100110001011110111001101100010001011100110010001100001011101000110000100101110011011010110100101100110 C
b00000000000000000000000000000000 c
b00000000000000000000000000000000 d
b00000000000000000000000000000000 e
b00000000000000000000000000000000 f
b00000000000000000000000000000000 g
b00000000000000000000000000000000 h
b00000000000000000000000000000000 i
b00000000000000000000000000000000 j
b00000000000000000000000000000000 k
b00000000000000000000000000000000 l
b00000000000000000000000000000000 m
b00000000000000000000000000000000 n
b00000000000000000000000000000000 o
b00000000000000000000000000000000 p
b00000000000000000000000000000000 q
b00000000000000000000000000000000 r
b00000000000000000000000000000000 s
b00000000000000000000000000000000 t
b00000000000000000000000000000000 u
b00000000000000000000000000000000 v
b00000000000000000000000000000000 w
b00000000000000000000000000000000 x
b00000000000000000000000000000000 y
b00000000000000000000000000000000 z
b00000000000000000000000000000000 {
b00000000000000000000000000000000 |
b00000000000000000000000000000000 }
b00000000000000000000000000000000 ~
b00000000000000000000000000000000 !!
b00000000000000000000000000000000 "!
b00000000000000000000000000000000 #!
b00000000000000000000000000000000 $!
b00000000000000000000000000000000 %!
0&!
b001 '!
b00 (!
b00 )!
1*!
b0000 +!
b00000000000000000000000000000010 ,!
b00000000000000000000000000000000 -!
b00000000000000000000000000000100 .!
b00000000000000000000000000000010 /!
b00000000000000000000000000000010 0!
b00000000000000000000000000000000 1!
b00000000000000000000000000000010 2!
b000000000000000000000000000000100000000000000000000000000000001000000000000000000000000000000100 3!
b00000000000000000000000000000010000000000000000000000000000001001111111111111111111111111110111100000000000000000000000000000010 6!
b0000000000000000000000000000000000000000000000000000000000000000 :!
b0000000000000000000000000000001000000000000000000000000000000000 <!
b00000000000000000000000000000100 >!
b00000000000000000000000000000010 ?!
b00000000000000000000000000000010 @!
b0000000000000000000000000000000001000001010001000100010000001001 A!
b00000000000000000000000000000000 C!
b00000000000000000000000000000000 D!
b00000000000000000000000000000000 E!
b00000000000000000000000000000010 F!
b00000000000000000000000000000010 G!
b11111111111111111111111111101111 H!
b00000000000000000000000000000100 I!
b00000000000000000000000000000010 J!
b0000000000000000000000000000000000000000000000000000000000000000000000000000000000000000000000000000000000000000000000000000000000000000000000000000000000000000000000000000000000000000000000000000000000000000000000000000000001100001011001000110010001101001 K!
b00000000000000001110111111101111 S!
b00000000000000000000000000000000 T!
b00000000001000000000111000010011 U!
b00000000000000000000000000000010 V!
0W!
b1100 X!
b00000000000000000000000000000000 Y!
b11101111111011111110111111101111 Z!
1[!
0\!
0]!
1^!
b11111111111111111111111111101111 _!
0`!
b1111 a!
b00000000000000000000000000000100 b!
b00000000000000000000000000000010 c!
b00000000000000000000000000000000 d!
b00000 e!
b00010 f!
b11100 g!
b0010011 h!
b000 i!
0j!
0k!
b00000000000000 l!
b00000000000000 m!
b00000000000000000000000000000000 n!
b00000000000000000000000000000011 o!
1p!
b00000000000000000000000000000100 q!
b00000000000000000000000000000010 r!
b00000000000000000000000000000100 s!
#1
0[!
#2
b00000000000000000000000000000010 !!
1[!
#3
0[!
#4
1[!
#5
0[!
#6
1[!
#7
0[!
#8
1[!
#9
0[!
#10
1[!
#11
0[!
1\!
#12
b101 '!
b01111111110000000000000000000100 ,!
b00000000000000000000000000000010 -!
b00000000000000000000000000001000 .!
b01111111110000000000000000000100 /!
b01111111110000000000000000000000 0!
b00000000000000000000000000000100 1!
b01111111110000000000000000000000 2!
b011111111100000000000000000001000111111111000000000000000000010000000000000000000000000000001000 3!
b01111111110000000000000000000000000000000000000000000000000010001111111111111111111111111110111101111111110000000000000000000100 6!
b0000000000000000000000000000010000000000000000000000000000000000 :!
b0111111111000000000000000000000000000000000000000000000000000010 <!
b00000000000000000000000000001000 >!
b01111111110000000000000000000100 ?!
b01111111110000000000000000000100 @!
b00000000000000000000000000000100 D!
b00000000000000000000000000000010 E!
b01111111110000000000000000000000 F!
b01111111110000000000000000000100 G!
b00000000000000000000000000001000 I!
b01111111110000000000000000000000 J!
b0000000000000000000000000000000000000000000000000000000000000000000000000000000000000000000000000000000000000000000000000000000000000000000000000000000000000000000000000000000000000000000000000000000000000000000000000110000101110101011010010111000001100011 K!
b11101111111011111110111111101111 S!
b00000000000000000000000000000100 T!
b01111111110000000000000100010111 U!
b01111111110000000000000000000100 V!
b1111 X!
b00000000000000000000000000000010 Y!
1[!
1]!
b00000000000000000000000000001000 b!
b01111111110000000000000000000100 c!
b11100 f!
b00010 g!
b0010111 h!
1j!
b00000000000001 l!
b00000000000001 m!
#13
0[!
#14
b01111111110000000000000000000100 e
b001 '!
b01111111110000000000000000000000 ,!
b00000000000000000000000000001100 .!
b01111111110000000000000000000000 /!
b11111111111111111111111111111100 0!
b01111111110000000000000000000100 1!
b11111111111111111111111111111100 2!
b011111111100000000000000000000000000000000000000000000000000010000000000000000000000000000001100 3!
b11111111111111111111111111111100000000000000000000000000000011001111111111111111111111111110111101111111110000000000000000000000 6!
b0000000000000000000000000000100001111111110000000000000000000100 :!
b1111111111111111111111111111110000000000000000000000000000000010 <!
b00000000000000000000000000001100 >!
b00000000000000000000000000000100 ?!
b01111111110000000000000000000000 @!
b01111111110000000000000000000100 C!
b00000000000000000000000000001000 D!
b11111111111111111111111111111100 F!
b01111111110000000000000000000000 G!
b00000000000000000000000000001100 I!
b11111111111111111111111111111100 J!
b0000000000000000000000000000000000000000000000000000000000000000000000000000000000000000000000000000000000000000000000000000000000000000000000000000000000000000000000000000000000000000000000000000000000000000000000000000000001100001011001000110010001101001 K!
b00000000000000000000000000001000 T!
b11111111110000010000000100010011 U!
b01111111110000000000000000000000 V!
1[!
0]!
b00000000000000000000000000001100 b!
b00000000000000000000000000000100 c!
b01111111110000000000000000000100 d!
b00010 e!
b0010011 h!
b00000000000010 l!
b00000000000000 m!
#15
0[!
#16
b01111111110000000000000000000000 e
b11111111111111111111111110101010 ,!
b00000000000000000000000000000000 -!
b00000000000000000000000000010000 .!
b11111111111111111111111110101010 /!
b11111111111111111111111110101010 0!
b00000000000000000000000000000000 1!
b11111111111111111111111110101010 2!
b111111111111111111111111101010101111111111111111111111111011011000000000000000000000000000010000 3!
b11111111111111111111111110101010000000000000000000000000000100000000000000000000000000000000000011111111111111111111111110101010 6!
b0000000000000000000000000000110000000000000000000000000000000000 :!
b1111111111111111111111111010101000000000000000000000000000000000 <!
b00000000000000000000000000010000 >!
b11111111111111111111111110110110 ?!
b11111111111111111111111110101010 @!
b00000000000000000000000000000000 C!
b00000000000000000000000000001100 D!
b00000000000000000000000000000000 E!
b11111111111111111111111110101010 F!
b11111111111111111111111110101010 G!
b00000000000000000000000000000000 H!
b00000000000000000000000000010000 I!
b11111111111111111111111110101010 J!
b00000000000000000000000000000000 S!
b00000000000000000000000000001100 T!
b11111010101000000000000010010011 U!
b11111111111111111111111110101010 V!
b1100 X!
b00000000000000000000000000000000 Y!
b00000000000000000000000000000000 Z!
1[!
b00000000000000000000000000000000 _!
b00000000000000000000000000010000 b!
b11111111111111111111111110110110 c!
b00000000000000000000000000000000 d!
b00000 e!
b01010 f!
b00001 g!
b00000000000011 l!
b11111111101010 m!
#17
0[!
#18
b11111111111111111111111110101010 d
b101 '!
b00000000000000000000000000010000 ,!
b00000000000000000000000000010100 .!
b00000000000000000000000000010000 /!
b00000000000000000000000000000000 0!
b00000000000000000000000000010000 1!
b00000000000000000000000000000000 2!
b000000000000000000000000000100000000000000000000000000000001000000000000000000000000000000010100 3!
b00000000000000000000000000000000000000000000000000000000000101000000000000000000000000000000000000000000000000000000000000010000 6!
b0000000000000000000000000001000000000000000000000000000000000000 :!
b0000000000000000000000000000000000000000000000000000000000000000 <!
b00000000000000000000000000010100 >!
b00000000000000000000000000010000 ?!
b00000000000000000000000000010000 @!
b00000000000000000000000000010000 D!
b00000000000000000000000000000000 F!
b00000000000000000000000000010000 G!
b00000000000000000000000000010100 I!
b00000000000000000000000000000000 J!
b0000000000000000000000000000000000000000000000000000000000000000000000000000000000000000000000000000000000000000000000000000000000000000000000000000000000000000000000000000000000000000000000000000000000000000000000000110000101110101011010010111000001100011 K!
b00000000000000000000000000010000 T!
b00000000000000000000011110010111 U!
b00000000000000000000000000010000 V!
b1111 X!
1[!
1]!
b00000000000000000000000000010100 b!
b00000000000000000000000000010000 c!
b00000 f!
b01111 g!
b0010111 h!
0j!
b00000000000100 l!
b00000000000100 m!
#19
0[!
#20
b00000000000000000000000000010000 r
b001 '!
b00000000000000000000000000100100 ,!
b00000000000000000000000000011000 .!
b00000000000000000000000000100100 /!
b00000000000000000000000000010100 0!
b00000000000000000000000000010100 2!
b000000000000000000000000001001000000000000000000000000000010100000000000000000000000000000011000 3!
b00000000000000000000000000010100000000000000000000000000000110000000000000000000000000000000000000000000000000000000000000100100 6!
b0000000000000000000000000001010000000000000000000000000000010000 :!
b0000000000000000000000000001010000000000000000000000000000000000 <!
b00000000000000000000000000011000 >!
b00000000000000000000000000101000 ?!
b00000000000000000000000000100100 @!
b00000000000000000000000000010000 C!
b00000000000000000000000000010100 D!
b00000000000000000000000000010100 F!
b00000000000000000000000000100100 G!
b00000000000000000000000000011000 I!
b00000000000000000000000000010100 J!
b0000000000000000000000000000000000000000000000000000000000000000000000000000000000000000000000000000000000000000000000000000000000000000000000000000000000000000000000000000000000000000000000000000000000000000000000000000000001100001011001000110010001101001 K!
b00000000000000000000000000010100 T!
b00000001010001111000011110010011 U!
b00000000000000000000000000100100 V!
1[!
0]!
b00000000000000000000000000011000 b!
b00000000000000000000000000101000 c!
b00000000000000000000000000010000 d!
b01111 e!
b10100 f!
b0010011 h!
b00000000000101 l!
b00000000001001 m!
#21
0[!
#22
b00000000000000000000000000100100 r
b010 '!
b01111111110000000000000000000000 ,!
b11111111111111111111111110101010 -!
b00000000000000000000000000011100 .!
b01111111110000000000000000000000 /!
b00000000000000000000000000000000 0!
b01111111110000000000000000000000 1!
b00000000000000000000000000000000 2!
b011111111100000000000000000000000000000000000000000000000001100000000000000000000000000000011100 3!
b00000000000000000000000000000000000000000000000000000000000111001111111111111111111111111110111101111111110000000000000000000000 6!
b0000000000000000000000000001100001111111110000000000000000000000 :!
b0000000000000000000000000000000011111111111111111111111110101010 <!
b00000000000000000000000000011100 >!
b00000000000000000000000000011000 ?!
b01111111110000000000000000000000 @!
b01111111110000000000000000000000 C!
b00000000000000000000000000011000 D!
b11111111111111111111111110101010 E!
b00000000000000000000000000000000 F!
b01111111110000000000000000000000 G!
b11111111111111111111111111101111 H!
b00000000000000000000000000011100 I!
b00000000000000000000000000000000 J!
b0000000000000000000000000000000000000000000000000000000000000000000000000000000000000000000000000000000000000000000000000000000000000000000000000000000000000000000000000000000000000000000000000000000000000000000000000000000000000000000000000111001101100010 K!
b11101111111011111110111111101111 S!
b00000000000000000000000000011000 T!
b00000000000100010000000000100011 U!
b01111111110000000000000000000000 V!
1W!
b0001 X!
b11111111111111111111111110101010 Y!
b11101111111011111110111111101111 Z!
1[!
0^!
b11111111111111111111111111101111 _!
1`!
b0001 a!
b00000000000000000000000000011100 b!
b00000000000000000000000000011000 c!
b01111111110000000000000000000000 d!
b00010 e!
b00001 f!
b00000 g!
b0100011 h!
b00000000000110 l!
b00000000000000 m!
#23
0[!
#24
b00000000000000000000000000000100 %!
b001 '!
b01 )!
b00000000000000000000000000000000 -!
b00000000000000000000000000100000 .!
b11111111111111111111111110101010 /!
b011111111100000000000000000000000000000000000000000000000001110000000000000000000000000000100000 3!
b00000000000000000000000000000000000000000000000000000000001000001111111111111111111111111010101001111111110000000000000000000000 6!
b0000000000000000000000000001110001111111110000000000000000000000 :!
b0000000000000000000000000000000000000000000000000000000000000000 <!
b00000000000000000000000000100000 >!
b00000000000000000000000000011100 ?!
b00000000000000000000000000011100 D!
b00000000000000000000000000000000 E!
b11111111111111111111111110101010 H!
b00000000000000000000000000100000 I!
b0000000000000000000000000000000000000000000000000000000000000000000000000000000000000000000000000000000000000000000000000000000000000000000000000000000000000000000000000000000000000000000000000000000000000000000000000000000000000000000000000110110001100010 K!
b11101111111011111110111110101010 S!
b00000000000000000000000000011100 T!
b00000000000000010000011100000011 U!
0W!
b00000000000000000000000000000000 Y!
b11101111111011111110111110101010 Z!
1[!
1^!
b11111111111111111111111110101010 _!
0`!
b00000000000000000000000000100000 b!
b00000000000000000000000000011100 c!
b00000 f!
b01110 g!
b0000011 h!
b00000000000111 l!
#25
0[!
#26
b11111111111111111111111110101010 q
1&!
b100 '!
b01 (!
b10 )!
0*!
b00000000000000000000000000000000 ,!
b00000000000000000000000000101000 .!
b00000000000000000000000000100100 /!
b00000000000000000000000000001000 0!
b00000000000000000000000000000000 1!
b000000000000000000000000000000000000000000000000000000000010100000000000000000000000000000100100 3!
b00000000000000000000000000001000000000000000000000000000001001001111111111111111111111111010101000000000000000000000000000000000 6!
b0000000000000000000000000010000000000000000000000000000000000000 :!
b0000000000000000000000000000100000000000000000000000000000000000 <!
b00000000000000000000000000100100 >!
b00000000000000000000000000101000 ?!
b00000000000000000000000000000000 @!
b00000000000000000000000000000000 C!
b00000000000000000000000000100000 D!
b00000000000000000000000000001000 F!
b00000000000000000000000000000000 G!
b00000000000000000000000000100100 I!
b00000000000000000000000000001000 J!
b0000000000000000000000000000000000000000000000000000000000000000000000000000000000000000000000000000000000000000000000000000000000000000000000000000000000000000000000000000000000000000000000000000000000000000000000000000000000000000011010100110000101101100 K!
b00000000000000000000000000100000 T!
b00000000100000000000000001101111 U!
b00000000000000000000000000000000 V!
b1111 X!
1[!
b1111 a!
b00000000000000000000000000100100 b!
b00000000000000000000000000101000 c!
b00000000000000000000000000000000 d!
b00000 e!
b01000 f!
b00000 g!
b1101111 h!
b00000000001000 l!
#27
0[!
#28
0&!
b001 '!
b00 (!
b00 )!
1*!
b11111111111111111111111110101010 ,!
b00000000000000000000000000101100 .!
b11111111111111111111111110101010 /!
b11111111111111111111111110101010 0!
b11111111111111111111111110101010 2!
b111111111111111111111111101010101111111111111111111111111101001000000000000000000000000000101100 3!
b11111111111111111111111110101010000000000000000000000000001011000000000000000000000000000000000011111111111111111111111110101010 6!
b0000000000000000000000000010100000000000000000000000000000000000 :!
b1111111111111111111111111010101000000000000000000000000000000000 <!
b00000000000000000000000000101100 >!
b11111111111111111111111111010010 ?!
b11111111111111111111111110101010 @!
b00000000000000000000000000101000 D!
b11111111111111111111111110101010 F!
b11111111111111111111111110101010 G!
b00000000000000000000000000000000 H!
b00000000000000000000000000101100 I!
b11111111111111111111111110101010 J!
b0000000000000000000000000000000000000000000000000000000000000000000000000000000000000000000000000000000000000000000000000000000000000000000000000000000000000000000000000000000000000000000000000000000000000000000000000000000001100001011001000110010001101001 K!
b00000000000000000000000000000000 S!
b00000000000000000000000000101000 T!
b11111010101000000000001110010011 U!
b11111111111111111111111110101010 V!
b1100 X!
b00000000000000000000000000000000 Z!
1[!
b00000000000000000000000000000000 _!
b00000000000000000000000000101100 b!
b11111111111111111111111111010010 c!
b01010 f!
b00111 g!
b0010011 h!
1j!
b00000000001010 l!
b11111111101010 m!
#29
0[!
#30
b11111111111111111111111110101010 j
1&!
b011 '!
0*!
b1000 +!
b00000000000000000000000000000000 ,!
b11111111111111111111111110101010 -!
b00000000000000000000000000110000 .!
b00000000000000000000000000000000 /!
b00000000000000000000010001001000 0!
b11111111111111111111111110101010 1!
b000000000000000000000000000000000000000000000000000001000111010000000000000000000000000000110000 3!
b00000000000000000000010001001000000000000000000000000000001100001111111111111111111011111010101000000000000000000000000000000000 6!
b0000000000000000000000000010110011111111111111111111111110101010 :!
b0000000000000000000001000100100011111111111111111111111110101010 <!
b00000000000000000000000000110000 >!
b00000000000000000000010001110100 ?!
b00000000000000000000000000000000 @!
b0000000000000000000000000000000001010011010101010100001000001001 A!
b11111111111111111111111110101010 C!
b00000000000000000000000000101100 D!
b11111111111111111111111110101010 E!
b00000000000000000000010001001000 F!
b00000000000000000000000000000000 G!
b11111111111111111110111110101010 H!
b00000000000000000000000000110000 I!
b00000000000000000000010001001000 J!
b0000000000000000000000000000000000000000000000000000000000000000000000000000000000000000000000000000000000000000000000000000000000000000000000000000000000000000000000000000000000000000000000000000000000000000000000000000000000000000011000100110111001100101 K!
b11101111111011111110111110101010 S!
b00000000000000000000000000101100 T!
b01000100011101110001010001100011 U!
b00000000000000000000000000000000 V!
b1111 X!
b11111111111111111111111110101010 Y!
b11101111111011111110111110101010 Z!
1[!
0^!
b11111111111111111110111110101010 _!
b00000000000000000000000000110000 b!
b00000000000000000000010001110100 c!
b11111111111111111111111110101010 d!
b01110 e!
b00111 f!
b01000 g!
b1100011 h!
b001 i!
b00000000001011 l!
b00000000000000 m!
#31
0[!
